2-2/Bilgisayar Organizasyonu/ödevler/2022/omerdiner/computer_organization_blm_2022/ödev_3/20011017/riscvsingle/riscvtest.vcd
$date
	Mon May 20 03:28:51 2024
$end
$version
	Icarus Verilog
$end
$timescale
	1s
$end
$scope module testbench $end
$var wire 32 ! WriteData [31:0] $end
$var wire 1 " MemWrite $end
$var wire 32 # DataAdr [31:0] $end
$var reg 1 $ clk $end
$var reg 1 % reset $end
$scope module uut $end
$var wire 1 $ clk $end
$var wire 1 % reset $end
$var wire 32 & WriteData [31:0] $end
$var wire 32 ' ReadData [31:0] $end
$var wire 32 ( PC [31:0] $end
$var wire 1 " MemWrite $end
$var wire 32 ) Instr [31:0] $end
$var wire 32 * DataAdr [31:0] $end
$scope module dmem $end
$var wire 1 $ clk $end
$var wire 32 + rd [31:0] $end
$var wire 1 " we $end
$var wire 32 , wd [31:0] $end
$var wire 32 - a [31:0] $end
$upscope $end
$scope module imem $end
$var wire 32 . rd [31:0] $end
$var wire 32 / a [31:0] $end
$upscope $end
$scope module rvsingle $end
$var wire 32 0 Instr [31:0] $end
$var wire 32 1 ReadData [31:0] $end
$var wire 1 $ clk $end
$var wire 1 % reset $end
$var wire 1 2 Zero $end
$var wire 32 3 WriteData [31:0] $end
$var wire 2 4 ResultSrc [1:0] $end
$var wire 1 5 RegWrite $end
$var wire 1 6 PCSrc $end
$var wire 32 7 PC [31:0] $end
$var wire 1 " MemWrite $end
$var wire 1 8 Jump $end
$var wire 2 9 ImmSrc [1:0] $end
$var wire 1 : ALUSrc $end
$var wire 32 ; ALUResult [31:0] $end
$var wire 3 < ALUControl [2:0] $end
$scope module c $end
$var wire 1 6 PCSrc $end
$var wire 3 = funct3 [2:0] $end
$var wire 1 > funct7b5 $end
$var wire 7 ? op [6:0] $end
$var wire 1 2 Zero $end
$var wire 2 @ ResultSrc [1:0] $end
$var wire 1 5 RegWrite $end
$var wire 1 " MemWrite $end
$var wire 1 8 Jump $end
$var wire 2 A ImmSrc [1:0] $end
$var wire 1 B Branch $end
$var wire 1 : ALUSrc $end
$var wire 2 C ALUOp [1:0] $end
$var wire 3 D ALUControl [2:0] $end
$scope module ad $end
$var wire 1 E RtypeSub $end
$var wire 3 F funct3 [2:0] $end
$var wire 1 > funct7b5 $end
$var wire 1 G opb5 $end
$var wire 2 H ALUOp [1:0] $end
$var reg 3 I ALUControl [2:0] $end
$upscope $end
$scope module md $end
$var wire 7 J op [6:0] $end
$var reg 2 K ALUOp [1:0] $end
$var reg 1 : ALUSrc $end
$var reg 1 B Branch $end
$var reg 2 L ImmSrc [1:0] $end
$var reg 1 8 Jump $end
$var reg 1 " MemWrite $end
$var reg 1 5 RegWrite $end
$var reg 2 M ResultSrc [1:0] $end
$upscope $end
$upscope $end
$scope module dp $end
$var wire 3 N ALUControl [2:0] $end
$var wire 1 : ALUSrc $end
$var wire 2 O ImmSrc [1:0] $end
$var wire 32 P Instr [31:0] $end
$var wire 1 6 PCSrc $end
$var wire 32 Q ReadData [31:0] $end
$var wire 1 5 RegWrite $end
$var wire 2 R ResultSrc [1:0] $end
$var wire 1 $ clk $end
$var wire 1 % reset $end
$var wire 1 2 Zero $end
$var wire 32 S WriteData [31:0] $end
$var wire 32 T SrcB [31:0] $end
$var wire 32 U SrcA [31:0] $end
$var wire 32 V Result [31:0] $end
$var wire 32 W PCTarget [31:0] $end
$var wire 32 X PCPlus4 [31:0] $end
$var wire 32 Y PCNext [31:0] $end
$var wire 32 Z PC [31:0] $end
$var wire 32 [ ImmExt [31:0] $end
$var wire 32 \ ALUResult [31:0] $end
$scope module alu $end
$var wire 3 ] sel [2:0] $end
$var wire 1 2 zero $end
$var wire 32 ^ b [31:0] $end
$var wire 32 _ a [31:0] $end
$var reg 32 ` y [31:0] $end
$upscope $end
$scope module ext $end
$var wire 2 a immsrc [1:0] $end
$var wire 25 b instr [31:7] $end
$var reg 32 c immext [31:0] $end
$upscope $end
$scope module pcadd4 $end
$var wire 32 d b [31:0] $end
$var wire 32 e y [31:0] $end
$var wire 32 f a [31:0] $end
$upscope $end
$scope module pcaddbranch $end
$var wire 32 g b [31:0] $end
$var wire 32 h y [31:0] $end
$var wire 32 i a [31:0] $end
$upscope $end
$scope module pcmux $end
$var wire 32 j d0 [31:0] $end
$var wire 32 k d1 [31:0] $end
$var wire 1 6 s $end
$var wire 32 l y [31:0] $end
$var parameter 32 m WIDTH $end
$upscope $end
$scope module pcreg $end
$var wire 1 $ clk $end
$var wire 32 n d [31:0] $end
$var wire 1 % reset $end
$var parameter 32 o WIDTH $end
$var reg 32 p q [31:0] $end
$upscope $end
$scope module resultmux $end
$var wire 32 q d0 [31:0] $end
$var wire 32 r d1 [31:0] $end
$var wire 32 s d2 [31:0] $end
$var wire 2 t s [1:0] $end
$var parameter 32 u WIDTH $end
$var reg 32 v y [31:0] $end
$upscope $end
$scope module rf $end
$var wire 5 w a1 [4:0] $end
$var wire 5 x a2 [4:0] $end
$var wire 5 y a3 [4:0] $end
$var wire 1 $ clk $end
$var wire 32 z wd3 [31:0] $end
$var wire 1 5 we3 $end
$var wire 32 { rd2 [31:0] $end
$var wire 32 | rd1 [31:0] $end
$upscope $end
$scope module srcbmux $end
$var wire 32 } d0 [31:0] $end
$var wire 32 ~ d1 [31:0] $end
$var wire 1 : s $end
$var wire 32 !" y [31:0] $end
$var parameter 32 "" WIDTH $end
$upscope $end
$upscope $end
$upscope $end
$upscope $end
$upscope $end
$enddefinitions $end
$comment Show the parameter values. $end
$dumpall
b100000 ""
b100000 u
b100000 o
b100000 m
$end
#0
$dumpvars
b0 !"
b0 ~
b0 }
b0 |
b0 {
b0 z
b1 y
b0 x
b0 w
b0 v
b0 t
b100 s
b11 r
b0 q
b0 p
b100 n
b100 l
b0 k
b100 j
b0 i
b0 h
b0 g
b0 f
b100 e
b100 d
b0 c
b1 b
b0 a
b0 `
b0 _
b0 ^
b0 ]
b0 \
b0 [
b0 Z
b100 Y
b100 X
b0 W
b0 V
b0 U
b0 T
b0 S
b0 R
b11 Q
b10010011 P
b0 O
b0 N
b0 M
b0 L
b10 K
b10011 J
b0 I
b10 H
0G
b0 F
0E
b0 D
b10 C
0B
b0 A
b0 @
b10011 ?
0>
b0 =
b0 <
b0 ;
1:
b0 9
08
b0 7
06
15
b0 4
b0 3
12
b11 1
b10010011 0
b0 /
b10010011 .
b0 -
b0 ,
b11 +
b0 *
b10010011 )
b0 (
b11 '
b0 &
1%
1$
b0 #
0"
b0 !
$end
#5
0$
#10
1$
#15
0$
#20
b10100 V
b10100 v
b10100 z
02
b10001 '
b10001 +
b10001 1
b10001 Q
b10001 r
b10100 #
b10100 *
b10100 -
b10100 ;
b10100 \
b10100 `
b10100 q
b10100 T
b10100 ^
b10100 !"
bx !
bx &
bx ,
bx 3
bx S
bx {
bx }
b10100 [
b10100 c
b10100 g
b10100 ~
b10100 x
b10 y
b101000000000000010 b
b1000 Y
b1000 l
b1000 n
b1010000000000000100010011 )
b1010000000000000100010011 .
b1010000000000000100010011 0
b1010000000000000100010011 P
b11000 W
b11000 h
b11000 k
b1000 X
b1000 e
b1000 j
b1000 s
b100 (
b100 /
b100 7
b100 Z
b100 f
b100 i
b100 p
1$
0%
#25
0$
#30
b11 y
b101000000000000011 b
b1100 Y
b1100 l
b1100 n
b1010000000000000110010011 )
b1010000000000000110010011 .
b1010000000000000110010011 0
b1010000000000000110010011 P
b11100 W
b11100 h
b11100 k
b1100 X
b1100 e
b1100 j
b1100 s
b1000 (
b1000 /
b1000 7
b1000 Z
b1000 f
b1000 i
b1000 p
1$
#35
0$
#40
b11111111111111111111111111101100 V
b11111111111111111111111111101100 v
b11111111111111111111111111101100 z
bx '
bx +
bx 1
bx Q
bx r
b11111111111111111111111111101100 #
b11111111111111111111111111101100 *
b11111111111111111111111111101100 -
b11111111111111111111111111101100 ;
b11111111111111111111111111101100 \
b11111111111111111111111111101100 `
b11111111111111111111111111101100 q
b1 <
b1 D
b1 I
b1 N
b1 ]
1G
05
b10 9
b10 A
b10 L
b10 O
b10 a
0:
1B
b1 C
b1 H
b1 K
b10100 !
b10100 &
b10100 ,
b10100 3
b10100 S
b10100 {
b10100 }
b100000 [
b100000 c
b100000 g
b100000 ~
b1100011 ?
b1100011 J
b1 w
b10 x
b0 y
b1000100000100000000 b
b10000 Y
b10000 l
b10000 n
b10001000001000000001100011 )
b10001000001000000001100011 .
b10001000001000000001100011 0
b10001000001000000001100011 P
b101100 W
b101100 h
b101100 k
b10000 X
b10000 e
b10000 j
b10000 s
b1100 (
b1100 /
b1100 7
b1100 Z
b1100 f
b1100 i
b1100 p
1$
#45
0$
#50
12
b11 '
b11 +
b11 1
b11 Q
b11 r
b0 #
b0 *
b0 -
b0 ;
b0 \
b0 `
b0 q
b11 V
b11 v
b11 z
b0 <
b0 D
b0 I
b0 N
b0 ]
b0 T
b0 ^
b0 !"
0G
15
b0 9
b0 A
b0 L
b0 O
b0 a
1:
b1 4
b1 @
b1 M
b1 R
b1 t
0B
b0 C
b0 H
b0 K
b0 !
b0 &
b0 ,
b0 3
b0 S
b0 {
b0 }
b0 [
b0 c
b0 g
b0 ~
b11 ?
b11 J
b10 =
b10 F
b0 x
b100 y
b101000100 b
b10100 Y
b10100 l
b10100 n
b1010001000000011 )
b1010001000000011 .
b1010001000000011 0
b1010001000000011 P
b10000 W
b10000 h
b10000 k
b10100 X
b10100 e
b10100 j
b10100 s
b10000 (
b10000 /
b10000 7
b10000 Z
b10000 f
b10000 i
b10000 p
1$
#55
0$
#60
b10001 V
b10001 v
b10001 z
02
b10001 '
b10001 +
b10001 1
b10001 Q
b10001 r
b10100 #
b10100 *
b10100 -
b10100 ;
b10100 \
b10100 `
b10100 q
b10100 U
b10100 _
b10100 |
b11 w
b101 y
b1101000101 b
b11000 Y
b11000 l
b11000 n
b11010001010000011 )
b11010001010000011 .
b11010001010000011 0
b11010001010000011 P
b10100 W
b10100 h
b10100 k
b11000 X
b11000 e
b11000 j
b11000 s
b10100 (
b10100 /
b10100 7
b10100 Z
b10100 f
b10100 i
b10100 p
1$
#65
0$
#70
b111001 V
b111001 v
b111001 z
b0 '
b0 +
b0 1
b0 Q
b0 r
b111001 #
b111001 *
b111001 -
b111001 ;
b111001 \
b111001 `
b111001 q
b101000 T
b101000 ^
b101000 !"
b0 4
b0 @
b0 M
b0 R
b0 t
b10 C
b10 H
b10 K
b10001 U
b10001 _
b10001 |
bx !
bx &
bx ,
bx 3
bx S
bx {
bx }
b101000 [
b101000 c
b101000 g
b101000 ~
b10011 ?
b10011 J
b0 =
b0 F
b101 w
b1000 x
b1010000010100000101 b
b11100 Y
b11100 l
b11100 n
b10100000101000001010010011 )
b10100000101000001010010011 .
b10100000101000001010010011 0
b10100000101000001010010011 P
b1000000 W
b1000000 h
b1000000 k
b11100 X
b11100 e
b11100 j
b11100 s
b11000 (
b11000 /
b11000 7
b11000 Z
b11000 f
b11000 i
b11000 p
1$
#75
0$
#80
02
b0 T
b0 ^
b0 !"
b111001 V
b111001 v
b111001 z
1G
05
b1 9
b1 A
b1 L
b1 O
b1 a
1"
b0 C
b0 H
b0 K
b0 <
b0 D
b0 I
b0 N
b0 ]
b11 !
b11 &
b11 ,
b11 3
b11 S
b11 {
b11 }
b0 [
b0 c
b0 g
b0 ~
b0 '
b0 +
b0 1
b0 Q
b0 r
b111001 #
b111001 *
b111001 -
b111001 ;
b111001 \
b111001 `
b111001 q
b100011 ?
b100011 J
b10 =
b10 F
b100 x
b0 y
b1000010101000000 b
b111001 U
b111001 _
b111001 |
b100000 Y
b100000 l
b100000 n
b10000101010000000100011 )
b10000101010000000100011 .
b10000101010000000100011 0
b10000101010000000100011 P
b11100 W
b11100 h
b11100 k
b100000 X
b100000 e
b100000 j
b100000 s
b11100 (
b11100 /
b11100 7
b11100 Z
b11100 f
b11100 i
b11100 p
1$
#85
0$
#90
b1 V
b1 v
b1 z
b1 #
b1 *
b1 -
b1 ;
b1 \
b1 `
b1 q
b1 T
b1 ^
b1 !"
0G
15
b0 9
b0 A
b0 L
b0 O
b0 a
0"
b10 C
b10 H
b10 K
b0 U
b0 _
b0 |
b0 !
b0 &
b0 ,
b0 3
b0 S
b0 {
b0 }
b1 [
b1 c
b1 g
b1 ~
b10011 ?
b10011 J
b0 =
b0 F
b1 w
b1 x
b1 y
b10000100000001 b
b100100 Y
b100100 l
b100100 n
b100001000000010010011 )
b100001000000010010011 .
b100001000000010010011 0
b100001000000010010011 P
b111 '
b111 +
b111 1
b111 Q
b111 r
b100001 W
b100001 h
b100001 k
b100100 X
b100100 e
b100100 j
b100100 s
b100000 (
b100000 /
b100000 7
b100000 Z
b100000 f
b100000 i
b100000 p
1$
#95
0$
#100
b10101 V
b10101 v
b10101 z
b1101 '
b1101 +
b1101 1
b1101 Q
b1101 r
b10101 #
b10101 *
b10101 -
b10101 ;
b10101 \
b10101 `
b10101 q
b11 w
b11 y
b10001100000011 b
b10100 U
b10100 _
b10100 |
b1 !
b1 &
b1 ,
b1 3
b1 S
b1 {
b1 }
b101000 Y
b101000 l
b101000 n
b100011000000110010011 )
b100011000000110010011 .
b100011000000110010011 0
b100011000000110010011 P
b100101 W
b100101 h
b100101 k
b101000 X
b101000 e
b101000 j
b101000 s
b100100 (
b100100 /
b100100 7
b100100 Z
b100100 f
b100100 i
b100100 p
1$
#105
0$
#110
1E
16
x2
b111001 T
b111001 ^
b111001 !"
b101100 V
b101100 v
b101100 z
1G
b11 9
b11 A
b11 L
b11 O
b11 a
0:
b10 4
b10 @
b10 M
b10 R
b10 t
b0 C
b0 H
b0 K
18
b0 <
b0 D
b0 I
b0 N
b0 ]
b111001 !
b111001 &
b111001 ,
b111001 3
b111001 S
b111001 {
b111001 }
b11111111111111111111111111100100 [
b11111111111111111111111111100100 c
b11111111111111111111111111100100 g
b11111111111111111111111111100100 ~
bx '
bx +
bx 1
bx Q
bx r
bx #
bx *
bx -
bx ;
bx \
bx `
bx q
b1101111 ?
b1101111 J
b111 =
b111 F
1>
b11111 w
b101 x
b11111 y
b1111111001011111111111111 b
bx U
bx _
bx |
b1100 Y
b1100 l
b1100 n
b11111110010111111111111111101111 )
b11111110010111111111111111101111 .
b11111110010111111111111111101111 0
b11111110010111111111111111101111 P
b1100 W
b1100 h
b1100 k
b101100 X
b101100 e
b101100 j
b101100 s
b101000 (
b101000 /
b101000 7
b101000 Z
b101000 f
b101000 i
b101000 p
1$
#115
0$
#120
b1 <
b1 D
b1 I
b1 N
b1 ]
06
bx '
bx +
bx 1
bx Q
bx r
b10100 T
b10100 ^
b10100 !"
05
b10 9
b10 A
b10 L
b10 O
b10 a
b0 4
b0 @
b0 M
b0 R
b0 t
1B
b1 C
b1 H
b1 K
08
0E
b10100 !
b10100 &
b10100 ,
b10100 3
b10100 S
b10100 {
b10100 }
b100000 [
b100000 c
b100000 g
b100000 ~
02
b11111111111111111111111111101101 #
b11111111111111111111111111101101 *
b11111111111111111111111111101101 -
b11111111111111111111111111101101 ;
b11111111111111111111111111101101 \
b11111111111111111111111111101101 `
b11111111111111111111111111101101 q
b1100011 ?
b1100011 J
b0 =
b0 F
0>
b1 w
b10 x
b0 y
b1000100000100000000 b
b1 U
b1 _
b1 |
b10000 Y
b10000 l
b10000 n
b11111111111111111111111111101101 V
b11111111111111111111111111101101 v
b11111111111111111111111111101101 z
b10001000001000000001100011 )
b10001000001000000001100011 .
b10001000001000000001100011 0
b10001000001000000001100011 P
b101100 W
b101100 h
b101100 k
b10000 X
b10000 e
b10000 j
b10000 s
b1100 (
b1100 /
b1100 7
b1100 Z
b1100 f
b1100 i
b1100 p
1$
#125
0$
#130
b111 '
b111 +
b111 1
b111 Q
b111 r
b1 #
b1 *
b1 -
b1 ;
b1 \
b1 `
b1 q
b111 V
b111 v
b111 z
b0 <
b0 D
b0 I
b0 N
b0 ]
b0 T
b0 ^
b0 !"
0G
15
b0 9
b0 A
b0 L
b0 O
b0 a
1:
b1 4
b1 @
b1 M
b1 R
b1 t
0B
b0 C
b0 H
b0 K
b0 !
b0 &
b0 ,
b0 3
b0 S
b0 {
b0 }
b0 [
b0 c
b0 g
b0 ~
b11 ?
b11 J
b10 =
b10 F
b0 x
b100 y
b101000100 b
b10100 Y
b10100 l
b10100 n
b1010001000000011 )
b1010001000000011 .
b1010001000000011 0
b1010001000000011 P
b10000 W
b10000 h
b10000 k
b10100 X
b10100 e
b10100 j
b10100 s
b10000 (
b10000 /
b10000 7
b10000 Z
b10000 f
b10000 i
b10000 p
1$
#135
0$
#140
b1101 V
b1101 v
b1101 z
b1101 '
b1101 +
b1101 1
b1101 Q
b1101 r
b10101 #
b10101 *
b10101 -
b10101 ;
b10101 \
b10101 `
b10101 q
b10101 U
b10101 _
b10101 |
b11 w
b101 y
b1101000101 b
b11000 Y
b11000 l
b11000 n
b11010001010000011 )
b11010001010000011 .
b11010001010000011 0
b11010001010000011 P
b10100 W
b10100 h
b10100 k
b11000 X
b11000 e
b11000 j
b11000 s
b10100 (
b10100 /
b10100 7
b10100 Z
b10100 f
b10100 i
b10100 p
1$
#145
0$
#150
b110101 V
b110101 v
b110101 z
b0 '
b0 +
b0 1
b0 Q
b0 r
b110101 #
b110101 *
b110101 -
b110101 ;
b110101 \
b110101 `
b110101 q
b101000 T
b101000 ^
b101000 !"
b0 4
b0 @
b0 M
b0 R
b0 t
b10 C
b10 H
b10 K
b1101 U
b1101 _
b1101 |
bx !
bx &
bx ,
bx 3
bx S
bx {
bx }
b101000 [
b101000 c
b101000 g
b101000 ~
b10011 ?
b10011 J
b0 =
b0 F
b101 w
b1000 x
b1010000010100000101 b
b11100 Y
b11100 l
b11100 n
b10100000101000001010010011 )
b10100000101000001010010011 .
b10100000101000001010010011 0
b10100000101000001010010011 P
b1000000 W
b1000000 h
b1000000 k
b11100 X
b11100 e
b11100 j
b11100 s
b11000 (
b11000 /
b11000 7
b11000 Z
b11000 f
b11000 i
b11000 p
1$
#155
0$
#160
02
b0 T
b0 ^
b0 !"
b110101 V
b110101 v
b110101 z
1G
05
b1 9
b1 A
b1 L
b1 O
b1 a
1"
b0 C
b0 H
b0 K
b0 <
b0 D
b0 I
b0 N
b0 ]
b111 !
b111 &
b111 ,
b111 3
b111 S
b111 {
b111 }
b0 [
b0 c
b0 g
b0 ~
b0 '
b0 +
b0 1
b0 Q
b0 r
b110101 #
b110101 *
b110101 -
b110101 ;
b110101 \
b110101 `
b110101 q
b100011 ?
b100011 J
b10 =
b10 F
b100 x
b0 y
b1000010101000000 b
b110101 U
b110101 _
b110101 |
b100000 Y
b100000 l
b100000 n
b10000101010000000100011 )
b10000101010000000100011 .
b10000101010000000100011 0
b10000101010000000100011 P
b11100 W
b11100 h
b11100 k
b100000 X
b100000 e
b100000 j
b100000 s
b11100 (
b11100 /
b11100 7
b11100 Z
b11100 f
b11100 i
b11100 p
1$
#165
0$
#170
b10 V
b10 v
b10 z
b10 #
b10 *
b10 -
b10 ;
b10 \
b10 `
b10 q
b1 T
b1 ^
b1 !"
0G
15
b0 9
b0 A
b0 L
b0 O
b0 a
0"
b10 C
b10 H
b10 K
b1 U
b1 _
b1 |
b1 !
b1 &
b1 ,
b1 3
b1 S
b1 {
b1 }
b1 [
b1 c
b1 g
b1 ~
b10011 ?
b10011 J
b0 =
b0 F
b1 w
b1 x
b1 y
b10000100000001 b
b100100 Y
b100100 l
b100100 n
b100001000000010010011 )
b100001000000010010011 .
b100001000000010010011 0
b100001000000010010011 P
b10 '
b10 +
b10 1
b10 Q
b10 r
b100001 W
b100001 h
b100001 k
b100100 X
b100100 e
b100100 j
b100100 s
b100000 (
b100000 /
b100000 7
b100000 Z
b100000 f
b100000 i
b100000 p
1$
#175
0$
#180
b10110 V
b10110 v
b10110 z
b10010 '
b10010 +
b10010 1
b10010 Q
b10010 r
b10110 #
b10110 *
b10110 -
b10110 ;
b10110 \
b10110 `
b10110 q
b11 w
b11 y
b10001100000011 b
b10101 U
b10101 _
b10101 |
b10 !
b10 &
b10 ,
b10 3
b10 S
b10 {
b10 }
b101000 Y
b101000 l
b101000 n
b100011000000110010011 )
b100011000000110010011 .
b100011000000110010011 0
b100011000000110010011 P
b100101 W
b100101 h
b100101 k
b101000 X
b101000 e
b101000 j
b101000 s
b100100 (
b100100 /
b100100 7
b100100 Z
b100100 f
b100100 i
b100100 p
1$
#185
0$
#190
1E
16
b110101 T
b110101 ^
b110101 !"
b101100 V
b101100 v
b101100 z
1G
b11 9
b11 A
b11 L
b11 O
b11 a
0:
b10 4
b10 @
b10 M
b10 R
b10 t
b0 C
b0 H
b0 K
18
b0 <
b0 D
b0 I
b0 N
b0 ]
b110101 !
b110101 &
b110101 ,
b110101 3
b110101 S
b110101 {
b110101 }
b11111111111111111111111111100100 [
b11111111111111111111111111100100 c
b11111111111111111111111111100100 g
b11111111111111111111111111100100 ~
bx '
bx +
bx 1
bx Q
bx r
b1100001 #
b1100001 *
b1100001 -
b1100001 ;
b1100001 \
b1100001 `
b1100001 q
b1101111 ?
b1101111 J
b111 =
b111 F
1>
b11111 w
b101 x
b11111 y
b1111111001011111111111111 b
b101100 U
b101100 _
b101100 |
b1100 Y
b1100 l
b1100 n
b11111110010111111111111111101111 )
b11111110010111111111111111101111 .
b11111110010111111111111111101111 0
b11111110010111111111111111101111 P
b1100 W
b1100 h
b1100 k
b101100 X
b101100 e
b101100 j
b101100 s
b101000 (
b101000 /
b101000 7
b101000 Z
b101000 f
b101000 i
b101000 p
1$
#195
0$
#200
b1 <
b1 D
b1 I
b1 N
b1 ]
06
bx '
bx +
bx 1
bx Q
bx r
b11111111111111111111111111101110 #
b11111111111111111111111111101110 *
b11111111111111111111111111101110 -
b11111111111111111111111111101110 ;
b11111111111111111111111111101110 \
b11111111111111111111111111101110 `
b11111111111111111111111111101110 q
b10100 T
b10100 ^
b10100 !"
05
b10 9
b10 A
b10 L
b10 O
b10 a
b0 4
b0 @
b0 M
b0 R
b0 t
1B
b1 C
b1 H
b1 K
08
0E
b10 U
b10 _
b10 |
b10100 !
b10100 &
b10100 ,
b10100 3
b10100 S
b10100 {
b10100 }
b100000 [
b100000 c
b100000 g
b100000 ~
b1100011 ?
b1100011 J
b0 =
b0 F
0>
b1 w
b10 x
b0 y
b1000100000100000000 b
b10000 Y
b10000 l
b10000 n
b11111111111111111111111111101110 V
b11111111111111111111111111101110 v
b11111111111111111111111111101110 z
b10001000001000000001100011 )
b10001000001000000001100011 .
b10001000001000000001100011 0
b10001000001000000001100011 P
b101100 W
b101100 h
b101100 k
b10000 X
b10000 e
b10000 j
b10000 s
b1100 (
b1100 /
b1100 7
b1100 Z
b1100 f
b1100 i
b1100 p
1$
#205
0$
#210
b10 '
b10 +
b10 1
b10 Q
b10 r
b10 #
b10 *
b10 -
b10 ;
b10 \
b10 `
b10 q
b10 V
b10 v
b10 z
b0 <
b0 D
b0 I
b0 N
b0 ]
b0 T
b0 ^
b0 !"
0G
15
b0 9
b0 A
b0 L
b0 O
b0 a
1:
b1 4
b1 @
b1 M
b1 R
b1 t
0B
b0 C
b0 H
b0 K
b0 !
b0 &
b0 ,
b0 3
b0 S
b0 {
b0 }
b0 [
b0 c
b0 g
b0 ~
b11 ?
b11 J
b10 =
b10 F
b0 x
b100 y
b101000100 b
b10100 Y
b10100 l
b10100 n
b1010001000000011 )
b1010001000000011 .
b1010001000000011 0
b1010001000000011 P
b10000 W
b10000 h
b10000 k
b10100 X
b10100 e
b10100 j
b10100 s
b10000 (
b10000 /
b10000 7
b10000 Z
b10000 f
b10000 i
b10000 p
1$
#215
0$
#220
b10010 V
b10010 v
b10010 z
b10010 '
b10010 +
b10010 1
b10010 Q
b10010 r
b10110 #
b10110 *
b10110 -
b10110 ;
b10110 \
b10110 `
b10110 q
b10110 U
b10110 _
b10110 |
b11 w
b101 y
b1101000101 b
b11000 Y
b11000 l
b11000 n
b11010001010000011 )
b11010001010000011 .
b11010001010000011 0
b11010001010000011 P
b10100 W
b10100 h
b10100 k
b11000 X
b11000 e
b11000 j
b11000 s
b10100 (
b10100 /
b10100 7
b10100 Z
b10100 f
b10100 i
b10100 p
1$
#225
0$
#230
b111010 V
b111010 v
b111010 z
b0 '
b0 +
b0 1
b0 Q
b0 r
b111010 #
b111010 *
b111010 -
b111010 ;
b111010 \
b111010 `
b111010 q
b101000 T
b101000 ^
b101000 !"
b0 4
b0 @
b0 M
b0 R
b0 t
b10 C
b10 H
b10 K
b10010 U
b10010 _
b10010 |
bx !
bx &
bx ,
bx 3
bx S
bx {
bx }
b101000 [
b101000 c
b101000 g
b101000 ~
b10011 ?
b10011 J
b0 =
b0 F
b101 w
b1000 x
b1010000010100000101 b
b11100 Y
b11100 l
b11100 n
b10100000101000001010010011 )
b10100000101000001010010011 .
b10100000101000001010010011 0
b10100000101000001010010011 P
b1000000 W
b1000000 h
b1000000 k
b11100 X
b11100 e
b11100 j
b11100 s
b11000 (
b11000 /
b11000 7
b11000 Z
b11000 f
b11000 i
b11000 p
1$
#235
0$
#240
02
b0 T
b0 ^
b0 !"
b111010 V
b111010 v
b111010 z
1G
05
b1 9
b1 A
b1 L
b1 O
b1 a
1"
b0 C
b0 H
b0 K
b0 <
b0 D
b0 I
b0 N
b0 ]
b10 !
b10 &
b10 ,
b10 3
b10 S
b10 {
b10 }
b0 [
b0 c
b0 g
b0 ~
b0 '
b0 +
b0 1
b0 Q
b0 r
b111010 #
b111010 *
b111010 -
b111010 ;
b111010 \
b111010 `
b111010 q
b100011 ?
b100011 J
b10 =
b10 F
b100 x
b0 y
b1000010101000000 b
b111010 U
b111010 _
b111010 |
b100000 Y
b100000 l
b100000 n
b10000101010000000100011 )
b10000101010000000100011 .
b10000101010000000100011 0
b10000101010000000100011 P
b11100 W
b11100 h
b11100 k
b100000 X
b100000 e
b100000 j
b100000 s
b11100 (
b11100 /
b11100 7
b11100 Z
b11100 f
b11100 i
b11100 p
1$
#245
0$
#250
b11 V
b11 v
b11 z
b11 #
b11 *
b11 -
b11 ;
b11 \
b11 `
b11 q
b1 T
b1 ^
b1 !"
0G
15
b0 9
b0 A
b0 L
b0 O
b0 a
0"
b10 C
b10 H
b10 K
b10 U
b10 _
b10 |
b1 [
b1 c
b1 g
b1 ~
b10011 ?
b10011 J
b0 =
b0 F
b1 w
b1 x
b1 y
b10000100000001 b
b100100 Y
b100100 l
b100100 n
b100001000000010010011 )
b100001000000010010011 .
b100001000000010010011 0
b100001000000010010011 P
b110 '
b110 +
b110 1
b110 Q
b110 r
b100001 W
b100001 h
b100001 k
b100100 X
b100100 e
b100100 j
b100100 s
b100000 (
b100000 /
b100000 7
b100000 Z
b100000 f
b100000 i
b100000 p
1$
#255
0$
#260
b10111 V
b10111 v
b10111 z
b1110 '
b1110 +
b1110 1
b1110 Q
b1110 r
b10111 #
b10111 *
b10111 -
b10111 ;
b10111 \
b10111 `
b10111 q
b11 w
b11 y
b10001100000011 b
b10110 U
b10110 _
b10110 |
b11 !
b11 &
b11 ,
b11 3
b11 S
b11 {
b11 }
b101000 Y
b101000 l
b101000 n
b100011000000110010011 )
b100011000000110010011 .
b100011000000110010011 0
b100011000000110010011 P
b100101 W
b100101 h
b100101 k
b101000 X
b101000 e
b101000 j
b101000 s
b100100 (
b100100 /
b100100 7
b100100 Z
b100100 f
b100100 i
b100100 p
1$
#265
0$
#270
1E
16
b111010 T
b111010 ^
b111010 !"
b101100 V
b101100 v
b101100 z
1G
b11 9
b11 A
b11 L
b11 O
b11 a
0:
b10 4
b10 @
b10 M
b10 R
b10 t
b0 C
b0 H
b0 K
18
b0 <
b0 D
b0 I
b0 N
b0 ]
b111010 !
b111010 &
b111010 ,
b111010 3
b111010 S
b111010 {
b111010 }
b11111111111111111111111111100100 [
b11111111111111111111111111100100 c
b11111111111111111111111111100100 g
b11111111111111111111111111100100 ~
bx '
bx +
bx 1
bx Q
bx r
b1100110 #
b1100110 *
b1100110 -
b1100110 ;
b1100110 \
b1100110 `
b1100110 q
b1101111 ?
b1101111 J
b111 =
b111 F
1>
b11111 w
b101 x
b11111 y
b1111111001011111111111111 b
b101100 U
b101100 _
b101100 |
b1100 Y
b1100 l
b1100 n
b11111110010111111111111111101111 )
b11111110010111111111111111101111 .
b11111110010111111111111111101111 0
b11111110010111111111111111101111 P
b1100 W
b1100 h
b1100 k
b101100 X
b101100 e
b101100 j
b101100 s
b101000 (
b101000 /
b101000 7
b101000 Z
b101000 f
b101000 i
b101000 p
1$
#275
0$
#280
b1 <
b1 D
b1 I
b1 N
b1 ]
06
bx '
bx +
bx 1
bx Q
bx r
b11111111111111111111111111101111 #
b11111111111111111111111111101111 *
b11111111111111111111111111101111 -
b11111111111111111111111111101111 ;
b11111111111111111111111111101111 \
b11111111111111111111111111101111 `
b11111111111111111111111111101111 q
b10100 T
b10100 ^
b10100 !"
05
b10 9
b10 A
b10 L
b10 O
b10 a
b0 4
b0 @
b0 M
b0 R
b0 t
1B
b1 C
b1 H
b1 K
08
0E
b11 U
b11 _
b11 |
b10100 !
b10100 &
b10100 ,
b10100 3
b10100 S
b10100 {
b10100 }
b100000 [
b100000 c
b100000 g
b100000 ~
b1100011 ?
b1100011 J
b0 =
b0 F
0>
b1 w
b10 x
b0 y
b1000100000100000000 b
b10000 Y
b10000 l
b10000 n
b11111111111111111111111111101111 V
b11111111111111111111111111101111 v
b11111111111111111111111111101111 z
b10001000001000000001100011 )
b10001000001000000001100011 .
b10001000001000000001100011 0
b10001000001000000001100011 P
b101100 W
b101100 h
b101100 k
b10000 X
b10000 e
b10000 j
b10000 s
b1100 (
b1100 /
b1100 7
b1100 Z
b1100 f
b1100 i
b1100 p
1$
#285
0$
